Quantitative methods and statistics (In Sport and Exercise Science) - 15 Special topics: Iterations and functions
…
               names_prefix = "lac.", 
              names_transform = list(watt = as.numeric), 
              cols = lac.125:lac.375) %>%
  # Filter missing lactate values
  filter(!is.na(lactate)) %>%
  # Group the data set, keeping group to have this information in the final results
  group_by(timepoint, subject, group) %>%
  # create a new variable counting the number of observations and filter away tests with less than 4 obs.
  mutate(n = n()) %>%
  filter(n >= 4) %>%
  # Use grouup modify to apply the function to all participants per time-point (and group)
  group_modify(~ lt(.)) %>%
  print()

# A tibble: 74 × 4
# Groups:   timepoint, subject, group [74]
   timepoint subject group watt.4mmol
   <chr>       <dbl> <chr>      <dbl>
 1 meso1           1 INCR        293.
 2 meso1           2 DECR        286.
 3 meso1           3 INCR        335.
 4 meso1           4 DECR        244.
 5 meso1           5 DECR        332.
 6 meso1           6 INCR        252.
 7 meso1           7 MIX         268.
 8 meso1           8 MIX         294.
 9 meso1           9 MIX         300.
10 meso1          10 INCR        340.
# ℹ 64 more rows
…
