Quantitative methods and statistics (In Sport and Exercise Science) - 19 Pre- to post-treatment analysis
…
isom_data <- strengthvolume %>% 
  
  filter(time %in% c("pre", "post"), 
         exercise == "isok.60") %>%
  inner_join(legs) %>%
  filter(leg == selected.leg) %>%
  group_by(participant, sex, time, sets) %>%
  summarise(load = max(load, na.rm = TRUE)) %>%
  pivot_wider(names_from = time, 
                    values_from = load) %>%
          mutate(change = post - pre) %>%
  print()

# A tibble: 34 × 6
# Groups:   participant, sex [34]
   participant sex    sets      post   pre change
   <chr>       <chr>  <chr>    <dbl> <dbl>  <dbl>
 1 FP11        male   multiple   230   214     16
 2 FP12        female single     235   213     22
 3 FP13        male   multiple   281   215     66
 4 FP14        female multiple   180   151     29
 5 FP15        male   single     258   256      2
 6 FP16        female single     135   121     14
 7 FP17        male   multiple   235   221     14
 8 FP19        male   multiple   243   233     10
 9 FP2         female multiple   144   132     12
10 FP20        female multiple   153    99     54
# ℹ 24 more rows
…
