Chapter 26 Assignment 5: Analyzing repeated measures experiments | Quantitative methods and statistics (In Sport and Exercise Science)
…
To get and overview of the variables in each data set use ?strengthvolume and ?dxadata. In the dxadata the variables of interest are organized in a more convenient way using the code below:

library(tidyverse)

dxadata %>%
  select(participant:include, lean.left_leg, lean.right_leg) %>%
  pivot_longer(names_to = "leg", 
               values_to = "lean.mass", 
               cols = lean.left_leg:lean.right_leg) %>%
  mutate(leg = if_else(leg == "lean.left_leg", "L", "R"), 
         sets = if_else(multiple == leg, "multiple", "single")) %>%
  select(participant, time, sex, include, sets, leg, lean.mass) %>%
  print()

## # A tibble: 160 x 7
##    participant time  sex    include sets     leg   lean.mass
##    <chr>       <chr> <chr>  <chr>   <chr>    <chr>     <dbl>
##  1 FP28        pre   female incl    multiple L          7059
##  2 FP28        pre   female incl    single   R          7104
##  3 FP40        pre   female incl    single   L          7190
##  4 FP40        pre   female incl    multiple R          7506
##  5 FP21        pre   male   incl    single   L         10281
##  6 FP21        pre   male   incl    multiple R         10200
##  7 FP34        pre   female incl    single   L          6014
##  8 FP34        pre   female incl    multiple R          6009
##  9 FP23        pre   male   incl    single   L          8242
## 10 FP23        pre   male   incl    multiple R          8685
## # ... with 150 more rows

You are free to use any other part of the data set in the assignment.

In the strengthvolume data set, strength measurement are made in several different exercises. In (Hammarström et al. 2020), one analysis was done on a combined score. This score was calculated as the scaled average. To obtain this combined score, use the code below:

strengthvolume %>%
  group_by(exercise) %>%
  mutate(scaled.load = load / max(load, na.rm = TRUE)) %>%
  group_by(participant, time, sex, include, sets) %>%
  summarise(combined.load = mean(scaled.load, na.rm = TRUE)) %>%
  ungroup() %>%
  print()

## # A tibble: 468 x 6
##    participant time     sex   include sets     combined.load
##    <chr>       <chr>    <chr> <chr>   <chr>            <dbl>
##  1 FP1         post     male  excl    multiple         0.696
##  2 FP1         post     male  excl    single           0.687
##  3 FP1         pre      male  excl    multiple         0.560
##  4 FP1         pre      male  excl    single           0.603
##  5 FP1         session1 male  excl    multiple         0.541
##  6 FP1         session1 male  excl    single           0.628
##  7 FP1         week2    male  excl    multiple         0.572
##  8 FP1         week2    male  excl    single           0.674
##  9 FP1         week5    male  excl    multiple         0.626
## 10 FP1         week5    male  excl    single           0.693
## # ... with 458 more rows
…
