Chapter 5 Creating your first graph | Quantitative methods and statistics (In Sport and Exercise Science)
…
We have now seen that the basic ggplot2 figure maps underlying data to coordinates and geometric representations, such as points. We will go further by using some real data. We will be using the cyclingstudy dataset from the exscidata-package. We will start by loading the data and select a few columns that we are interested in. By using data("cyclingstudy") we will load the data set that is part of the exscidata-package to our environment. By looking at the environment tab you can see that this operation adds a data set to the environment. It has 80 observations and 101 variables. Using the glimpse() function from dplyr (which is loaded by loading tidyverse) we will get an overview of all variables in the dataset. I have omitted the output from the code below

# Load the data and have a first look
data("cyclingstudy")
glimpse(cyclingstudy)

We will store a selected set of variables in a new object for ease of use. We will call this object cycdat. We select variables using the function with the very suitable name select where the first argument specifies the dataset, following arguments specifies what variables we want. Let’s say that we are interested in squat jump height. The exscidata package comes with descriptions of the datasets. By writing ?cyclingstudy in your console you will see the description of the data in your help tab. Squat jump is recorded as sj.max, we select this variable together with subject, group and timepoint to create a smaller data set.

# Assign a selected set of variables to a smaller data set
cycdat <- select(cyclingstudy, subject, group, timepoint, sj.max)
# Printing the data set
cycdat

## # A tibble: 80 x 4
##    subject group timepoint sj.max
##      <dbl> <chr> <chr>      <dbl>
##  1       1 INCR  pre         31.0
##  2       2 DECR  pre         31.6
##  3       3 INCR  pre         26.8
##  4       4 DECR  pre         29.2
##  5       5 DECR  pre         31.2
##  6       6 INCR  pre         34.2
##  7       7 MIX   pre         30.1
##  8       8 MIX   pre         32.8
##  9       9 MIX   pre         22.7
## 10      10 INCR  pre         29.7
## # ... with 70 more rows
…
